…
The parameters that have _Intercept in their name are what we called \(\mu_a\) and \(\mu_b\), the onse containing _dose are our \(a_1\) and \(b_1\). We find pretty much the same results we found using ulam.

Model 4

draws <- posterior::as_draws_array(fl[[4]]$fit)
pars = posterior::summarize_draws(draws, default_summary_measures(), default_convergence_measures())
print(pars)

## # A tibble: 105 x 10
##    variable          mean  median      sd     mad      q5     q95  rhat ess_bulk
##    <chr>            <dbl>   <dbl>   <dbl>   <dbl>   <dbl>   <dbl> <dbl>    <dbl>
##  1 b_alpha_Inter~  2.96    2.96   0.0192  0.0190   2.93    3.00    1.00    2286.
##  2 b_alpha_dose_~  0.0378  0.0380 0.00968 0.00939  0.0218  0.0534  1.00    2812.
##  3 b_beta_Interc~  1.01    1.01   0.0240  0.0236   0.968   1.05    1.00    2391.
##  4 b_beta_dose_a~ -0.0488 -0.0488 0.0127  0.0123  -0.0700 -0.0278  1.00    2513.
##  5 sd_id__alpha_~  0.0882  0.0865 0.0145  0.0138   0.0678  0.115   1.00    2543.
##  6 sd_id__beta_I~  0.115   0.113  0.0190  0.0175   0.0880  0.150   1.00    2414.
##  7 sigma           0.972   0.971  0.0472  0.0463   0.898   1.05    1.00    6807.
##  8 r_id__alpha[1~  0.192   0.192  0.0333  0.0323   0.137   0.247   1.00    3027.
##  9 r_id__alpha[2~  0.121   0.121  0.0335  0.0327   0.0667  0.176   1.00    3215.
## 10 r_id__alpha[3~ -0.0396 -0.0393 0.0341  0.0332  -0.0960  0.0157  1.00    3246.
## # ... with 95 more rows, and 1 more variable: ess_tail <dbl>
…
